mesh_router/mesh_router/sim/com.log

Warning-[LINX_KRNL] Unsupported Linux kernel
  Linux kernel '5.15.0-48-generic' is not supported.
  Supported versions are 2.4* or 2.6*.

Command: vcs -full64 -sverilog +v2k +vcs+flush+all -timescale=1ns/1ps -R -l com.log \
-o tb.simv +libext+.v +vcs+vcdpluson +vcs+fsdbson -debug_pp +nospecify +notimingcheck \
-P /usr/eda/verdi/verdi/Verdi_O-2018.09-SP2/share/PLI/VCS/LINUX64/novas.tab /usr/eda/verdi/verdi/Verdi_O-2018.09-SP2/share/PLI/VCS/LINUX64/pli.a \
+incdir+/home/cgra/newspace/NOC/bsg_noc/test_noc/mesh_router/src -y /home/cgra/newspace/NOC/bsg_noc/test_noc/mesh_router/src \
-y /home/cgra/newspace/NOC/bsg_noc/test_noc/mesh_router/src/tb /home/cgra/newspace/NOC/bsg_noc/test_noc/mesh_router/src/bsg_noc_links.vh \
/home/cgra/newspace/NOC/bsg_noc/test_noc/mesh_router/src/bsg_manycore_packet.vh -f \
filelist.f -top test_bench
                         Chronologic VCS (TM)
       Version O-2018.09-SP2_Full64 -- Tue Oct  4 23:47:21 2022
               Copyright (c) 1991-2018 by Synopsys Inc.
                         ALL RIGHTS RESERVED

This program is proprietary and confidential information of Synopsys Inc.
and may be used and disclosed only as authorized in a license agreement
controlling such use and disclosure.

Parsing design file '/home/cgra/newspace/NOC/bsg_noc/test_noc/mesh_router/src/bsg_noc_links.vh'
Parsing design file '/home/cgra/newspace/NOC/bsg_noc/test_noc/mesh_router/src/bsg_manycore_packet.vh'
Parsing included file '/home/cgra/newspace/NOC/bsg_noc/test_noc/mesh_router/src/bsg_noc_links.vh'.
Back to file '/home/cgra/newspace/NOC/bsg_noc/test_noc/mesh_router/src/bsg_manycore_packet.vh'.
Parsing design file '../src/bsg_nonsynth_clock_gen.v'
Parsing design file '../src/bsg_nonsynth_reset_gen.v'
Parsing design file '../src/bsg_noc_links.vh'
Parsing design file '../src/bsg_manycore_packet.vh'
Parsing design file '../src/bsg_defines.v'
Parsing design file '../src/bsg_counter_up_down.v'
Parsing design file '../src/bsg_inv.v'
Parsing design file '../src/bsg_circular_ptr.v'
Parsing included file '/home/cgra/newspace/NOC/bsg_noc/test_noc/mesh_router/src/bsg_defines.v'.
Back to file '../src/bsg_circular_ptr.v'.
Parsing design file '../src/bsg_mux_one_hot.v'
Parsing design file '../src/bsg_round_robin_arb.v'
Parsing design file '../src/bsg_mem_1r1w_synth.v'
Parsing design file '../src/bsg_mem_1r1w.v'
Parsing design file '../src/bsg_two_fifo.v'
Parsing design file '../src/bsg_fifo_1r1w_small.v'
Parsing design file '../src/bsg_fifo_tracker.v'
Parsing design file '../src/bsg_noc_pkg.v'
Parsing design file '../src/bsg_mesh_router.v'
Parsing design file '../src/bsg_mesh_router_buffered.v'
Parsing included file '/home/cgra/newspace/NOC/bsg_noc/test_noc/mesh_router/src/bsg_noc_links.vh'.
Back to file '../src/bsg_mesh_router_buffered.v'.
Parsing design file '../src/bsg_manycore_link_sif_tieoff.v'
Parsing design file '../src/bsg_manycore_mesh_node.v'
Parsing included file '/home/cgra/newspace/NOC/bsg_noc/test_noc/mesh_router/src/bsg_manycore_packet.vh'.
Back to file '../src/bsg_manycore_mesh_node.v'.
Parsing design file '../src/bsg_manycore_endpoint_standard.v'
Parsing included file '/home/cgra/newspace/NOC/bsg_noc/test_noc/mesh_router/src/bsg_manycore_packet.vh'.
Back to file '../src/bsg_manycore_endpoint_standard.v'.
Parsing design file '../src/bsg_1hold.v'
Parsing design file '../src/bsg_manycore_endpoint.v'
Parsing included file '/home/cgra/newspace/NOC/bsg_noc/test_noc/mesh_router/src/bsg_manycore_packet.vh'.
Back to file '../src/bsg_manycore_endpoint.v'.
Parsing design file '../src/bsg_manycore_lock_ctrl.v'
Parsing design file '../src/tb/test_bench.v'
Parsing design file '../src/tb/mesh_master_example.v'
Parsing included file '/home/cgra/newspace/NOC/bsg_noc/test_noc/mesh_router/src/bsg_manycore_packet.vh'.
Back to file '../src/tb/mesh_master_example.v'.
Parsing design file '../src/tb/mesh_slave_example.v'
Parsing included file '/home/cgra/newspace/NOC/bsg_noc/test_noc/mesh_router/src/bsg_manycore_packet.vh'.
Back to file '../src/tb/mesh_slave_example.v'.
Parsing design file '../src/tb/mesh_top_example.v'
Parsing included file '/home/cgra/newspace/NOC/bsg_noc/test_noc/mesh_router/src/bsg_manycore_packet.vh'.
Back to file '../src/tb/mesh_top_example.v'.
Top Level Modules:
       test_bench
TimeScale is 1 ns / 1 ps
Starting vcs inline pass...
8 modules and 0 UDP read.
recompiling module bsg_mux_one_hot
recompiling module bsg_round_robin_arb
recompiling module bsg_two_fifo
recompiling package bsg_noc_pkg
recompiling module bsg_manycore_link_sif_tieoff
recompiling module bsg_manycore_mesh_node
recompiling module bsg_manycore_endpoint_standard
recompiling module test_bench
All of 8 modules done
make[1]: Entering directory '/home/cgra/newspace/NOC/bsg_noc/test_noc/mesh_router/sim/csrc' \

rm -f _csrc*.so pre_vcsobj_*.so share_vcsobj_*.so
if [ -x ../tb.simv ]; then chmod -x ../tb.simv; fi
g++  -o ../tb.simv -no-pie  -Wl,--no-as-needed    -Wl,-rpath-link=./ -Wl,-rpath='$ORIGIN'/tb.simv.daidir/ \
-Wl,-rpath=./tb.simv.daidir/ -Wl,-rpath='$ORIGIN'/tb.simv.daidir//scsim.db.dir  -L/usr/lib/x86_64-linux-gnu \
-L/lib/x86_64-linux-gnu -Wl,--no-as-needed -rdynamic  -Wl,-rpath=/usr/eda/vcs_mx2018/vcs-mx/O-2018.09-SP2/linux64/lib \
-L/usr/eda/vcs_mx2018/vcs-mx/O-2018.09-SP2/linux64/lib   objs/amcQw_d.o   _61119_archive_1.so \
SIM_l.o       rmapats_mop.o rmapats.o rmar.o rmar_nd.o  rmar_llvm_0_1.o rmar_llvm_0_0.o \
-lnuma -lzerosoft_rt_stubs -lvirsim -lerrorinf -lsnpsmalloc -lvfs /usr/eda/verdi/verdi/Verdi_O-2018.09-SP2/share/PLI/VCS/LINUX64/pli.a \
-lvcsnew -lsimprofile -luclinative /usr/eda/vcs_mx2018/vcs-mx/O-2018.09-SP2/linux64/lib/vcs_tls.o \
-Wl,-whole-archive -lvcsucli -Wl,-no-whole-archive        _vcs_pli_stub_.o   /usr/eda/vcs_mx2018/vcs-mx/O-2018.09-SP2/linux64/lib/vcs_save_restore_new.o \
-ldl -lm  -lc -lpthread -ldl 
../tb.simv up to date
make[1]: Leaving directory '/home/cgra/newspace/NOC/bsg_noc/test_noc/mesh_router/sim/csrc' \

Command: /home/cgra/newspace/NOC/bsg_noc/test_noc/mesh_router/sim/./tb.simv +v2k +vcs+flush+all -a com.log +libext+.v +vcs+fsdbson +nospecify +notimingcheck
Chronologic VCS simulator copyright 1991-2018
Contains Synopsys proprietary information.
Compiler version O-2018.09-SP2_Full64; Runtime version O-2018.09-SP2_Full64;  Oct  4 23:47 2022
VCD+ Writer O-2018.09-SP2_Full64 Copyright (c) 1991-2018 by Synopsys Inc.
## bsg_mem_1r1w: instantiating width_p=         56, els_p=          4, read_write_same_addr_p=          0, harden_p=          0 (test_bench.top.master.endpoint_example.bme.fifo.mem_1r1w)
## bsg_mem_1r1w: instantiating width_p=         56, els_p=          4, read_write_same_addr_p=          0, harden_p=          0 (test_bench.top.slave.endpoint_example.bme.fifo.mem_1r1w)
## bsg_mem_1r1w: instantiating width_p=         56, els_p=          2, read_write_same_addr_p=          0, harden_p=          0 (test_bench.top.meshnode[0].mesh_node.rof[0].bmrb.rof[0].fi.twofer.mem_1r1w)
## bsg_mem_1r1w: instantiating width_p=         56, els_p=          2, read_write_same_addr_p=          0, harden_p=          0 (test_bench.top.meshnode[0].mesh_node.rof[0].bmrb.rof[1].fi.twofer.mem_1r1w)
## bsg_mem_1r1w: instantiating width_p=         56, els_p=          2, read_write_same_addr_p=          0, harden_p=          0 (test_bench.top.meshnode[0].mesh_node.rof[0].bmrb.rof[2].fi.twofer.mem_1r1w)
## bsg_mem_1r1w: instantiating width_p=         56, els_p=          2, read_write_same_addr_p=          0, harden_p=          0 (test_bench.top.meshnode[0].mesh_node.rof[0].bmrb.rof[3].fi.twofer.mem_1r1w)
## bsg_mem_1r1w: instantiating width_p=         56, els_p=          2, read_write_same_addr_p=          0, harden_p=          0 (test_bench.top.meshnode[0].mesh_node.rof[0].bmrb.rof[4].fi.twofer.mem_1r1w)
## bsg_mem_1r1w: instantiating width_p=         48, els_p=          2, read_write_same_addr_p=          0, harden_p=          0 (test_bench.top.meshnode[0].mesh_node.rof[1].bmrb.rof[0].fi.twofer.mem_1r1w)
## bsg_mem_1r1w: instantiating width_p=         48, els_p=          2, read_write_same_addr_p=          0, harden_p=          0 (test_bench.top.meshnode[0].mesh_node.rof[1].bmrb.rof[1].fi.twofer.mem_1r1w)
## bsg_mem_1r1w: instantiating width_p=         48, els_p=          2, read_write_same_addr_p=          0, harden_p=          0 (test_bench.top.meshnode[0].mesh_node.rof[1].bmrb.rof[2].fi.twofer.mem_1r1w)
## bsg_mem_1r1w: instantiating width_p=         48, els_p=          2, read_write_same_addr_p=          0, harden_p=          0 (test_bench.top.meshnode[0].mesh_node.rof[1].bmrb.rof[3].fi.twofer.mem_1r1w)
## bsg_mem_1r1w: instantiating width_p=         48, els_p=          2, read_write_same_addr_p=          0, harden_p=          0 (test_bench.top.meshnode[0].mesh_node.rof[1].bmrb.rof[4].fi.twofer.mem_1r1w)
## bsg_mem_1r1w: instantiating width_p=         56, els_p=          2, read_write_same_addr_p=          0, harden_p=          0 (test_bench.top.meshnode[1].mesh_node.rof[0].bmrb.rof[0].fi.twofer.mem_1r1w)
## bsg_mem_1r1w: instantiating width_p=         56, els_p=          2, read_write_same_addr_p=          0, harden_p=          0 (test_bench.top.meshnode[1].mesh_node.rof[0].bmrb.rof[1].fi.twofer.mem_1r1w)
## bsg_mem_1r1w: instantiating width_p=         56, els_p=          2, read_write_same_addr_p=          0, harden_p=          0 (test_bench.top.meshnode[1].mesh_node.rof[0].bmrb.rof[2].fi.twofer.mem_1r1w)
## bsg_mem_1r1w: instantiating width_p=         56, els_p=          2, read_write_same_addr_p=          0, harden_p=          0 (test_bench.top.meshnode[1].mesh_node.rof[0].bmrb.rof[3].fi.twofer.mem_1r1w)
## bsg_mem_1r1w: instantiating width_p=         56, els_p=          2, read_write_same_addr_p=          0, harden_p=          0 (test_bench.top.meshnode[1].mesh_node.rof[0].bmrb.rof[4].fi.twofer.mem_1r1w)
## bsg_mem_1r1w: instantiating width_p=         48, els_p=          2, read_write_same_addr_p=          0, harden_p=          0 (test_bench.top.meshnode[1].mesh_node.rof[1].bmrb.rof[0].fi.twofer.mem_1r1w)
## bsg_mem_1r1w: instantiating width_p=         48, els_p=          2, read_write_same_addr_p=          0, harden_p=          0 (test_bench.top.meshnode[1].mesh_node.rof[1].bmrb.rof[1].fi.twofer.mem_1r1w)
## bsg_mem_1r1w: instantiating width_p=         48, els_p=          2, read_write_same_addr_p=          0, harden_p=          0 (test_bench.top.meshnode[1].mesh_node.rof[1].bmrb.rof[2].fi.twofer.mem_1r1w)
## bsg_mem_1r1w: instantiating width_p=         48, els_p=          2, read_write_same_addr_p=          0, harden_p=          0 (test_bench.top.meshnode[1].mesh_node.rof[1].bmrb.rof[3].fi.twofer.mem_1r1w)
## bsg_mem_1r1w: instantiating width_p=         48, els_p=          2, read_write_same_addr_p=          0, harden_p=          0 (test_bench.top.meshnode[1].mesh_node.rof[1].bmrb.rof[4].fi.twofer.mem_1r1w)



########################## Time:                   0, Dump Start ######################


TimeScale of test_bench is 1 ns / 1 ps 
*Verdi* Loading libsscore_vcs201809.so
FSDB Dumper for VCS, Release Verdi_O-2018.09-SP2, Linux x86_64/64bit, 02/21/2019
(C) 1996 - 2019 by Synopsys, Inc.
*Verdi* : Create FSDB file 'tb.fsdb'
*Verdi* : Begin traversing the scope (test_bench), layer (0).
*Verdi* : Enable +mda dumping.
*Verdi* : End of traversing.


 Bit Test: f   


test_bench.clock_gen with cycle_time_p          50
__________ ___________  _______________________________
\______   \\_   _____/ /   _____/\_   _____/\__    ___/
 |       _/ |    __)_  \_____  \  |    __)_   |    |   
 |    |   \ |        \ /        \ |        \  |    |  1->0 time =          0
 |____|_  //_______  //_______  //_______  /  |____|   
 ASYNC  \/         \/         \/         \/            
__________ ___________  _______________________________
\______   \\_   _____/ /   _____/\_   _____/\__    ___/
 |       _/ |    __)_  \_____  \  |    __)_   |    |   
 |    |   \ |        \ /        \ |        \  |    |  0->1 time =          0
 |____|_  //_______  //_______  //_______  /  |____|   
 ASYNC  \/         \/         \/         \/            
__________ ___________  _______________________________
\______   \\_   _____/ /   _____/\_   _____/\__    ___/
 |       _/ |    __)_  \_____  \  |    __)_   |    |   
 |    |   \ |        \ /        \ |        \  |    |  1->0 time =        500
 |____|_  //_______  //_______  //_______  /  |____|   
 ASYNC  \/         \/         \/         \/            
cycle           7, returned=00000000, expected=000
cycle           8, returned=00000001, expected=001
cycle           9, returned=00000002, expected=002
cycle          10, returned=00000003, expected=003
cycle          11, returned=00000004, expected=004
cycle          12, returned=00000005, expected=005
cycle          13, returned=00000006, expected=006
cycle          14, returned=00000007, expected=007
cycle          15, returned=00000008, expected=008
cycle          16, returned=00000009, expected=009
cycle          17, returned=0000000a, expected=00a
cycle          18, returned=0000000b, expected=00b
cycle          19, returned=0000000c, expected=00c
cycle          20, returned=0000000d, expected=00d
cycle          21, returned=0000000e, expected=00e
cycle          22, returned=0000000f, expected=00f
cycle          23, returned=00000010, expected=010
cycle          24, returned=00000011, expected=011
cycle          25, returned=00000012, expected=012
cycle          26, returned=00000013, expected=013
cycle          27, returned=00000014, expected=014
cycle          28, returned=00000015, expected=015
cycle          29, returned=00000016, expected=016
cycle          30, returned=00000017, expected=017
cycle          31, returned=00000018, expected=018
cycle          32, returned=00000019, expected=019
cycle          33, returned=0000001a, expected=01a
cycle          34, returned=0000001b, expected=01b
cycle          35, returned=0000001c, expected=01c
cycle          36, returned=0000001d, expected=01d
cycle          37, returned=0000001e, expected=01e
cycle          38, returned=0000001f, expected=01f
$finish called from file "../src/tb/test_bench.v", line 63.
$finish at simulation time              4025000
           V C S   S i m u l a t i o n   R e p o r t 
Time: 4025000 ps
CPU Time:      0.420 seconds;       Data structure size:   0.2Mb
Tue Oct  4 23:47:24 2022
CPU time: 1.434 seconds to compile + .401 seconds to elab + .335 seconds to link + .467 seconds in simulation
